{
  "version": {
    "major" : 2,
    "medium": 1,
    "minor" : 0
  },

  "release": {
    "date": "2021-02-15"
  },

  "breaking_changes" : [
    {
      "id" : "bc01",
      "brief": "Moved makefile generation into mettlegen library instead of mettle library.",
      "detail": "Makefile generation now works like database and braze generation. You will need to convert your gen.py makefile projects to the new makefile.yml project layout."
    },
    {
      "id" : "bc02",
      "brief": "Default makefile target is 'help' instead of 'release'.",
      "detail": "All makefiles now generate with 'help' as the default instead of 'release'. Mettle has updated it's ~/build/makefile to take account for this."
    },
    {
      "id" : "bc03",
      "brief": "Packaged verision file changed from '~bin/package-version.yml' to '~bin/package-version.txt'.",
      "detail": "The packaged version file is not a text file instead of a YAML file. This makes it easier to read for shell scripts and other languages."
    },
    {
      "id" : "bc04",
      "brief": "Changed from python `venv` to `virtualenv`.",
      "detail": "In order to cater for PYPI, changed to virtualenv because it has fewer issues and is just all round better. You will need to remove the old `mettle-venv` folder."
    },
    {
      "id" : "bc05",
      "brief": "Fixed the List typing in TypeScript braze library.",
      "detail": "The List template class in the braze library now longer expects ISerializable, but rather the template type. This was a bug. Sorry Dave. In theory this might no cause any erros, but you won't need to do the type casting any more."
    },
    {
      "id" : "bc06",
      "brief": "Python ZipBuddy refactor.",
      "detail": "The ZipBuddy class was refactored to use snake case methods."
    }
  ],

  "new_features" : [
    {
      "id" : "nf01",
      "brief": "Dynamic loading of make file generators finally catered for.",
      "detail": "Makefile generator writers can now use the new environment variables [METTLE_MK_CUST_GENES] to dynamically load their own code generators as part of the normal mettle build process."
    },
    {
      "id" : "nf02",
      "brief": "The mettle package version is loaded into the environment variables from the .init-env.sh script.",
      "detail": "New environment variables are: METTLE_VER_CODENAME, METTLE_VER_MAJ, METTLE_VER_MED, METTLE_VER_MIN, METTLE_VERSION."
    },
    {
      "id" : "nf03",
      "brief": "Flaked the beast..",
      "detail": "Finally got around to flaking the python code."
    },
    {
      "id" : "nf04",
      "brief": "PYPI",
      "detail": "The python code is now in PYPI under 'bitsmiths-mettle'. You can pip install it."
    }
  ],

  "deprecated" : [
    {
      "id" : "dp01",
      "brief": "Removed Java generators and code.",
      "detail": "We decided to nuke our java generation and code support, if it has not been used ever, its unlikely to be used in the future."
    },
    {
      "id" : "dp02",
      "brief": "Removed Dot Net generators and code.",
      "detail": "We decided to nuke our C# generation and code support, its not been used in a new projects for the past 5 years so goodbye."
    },
    {
      "id" : "dp03",
      "brief": "Removed the old python egg support.",
      "detail": "Because you can pip install mettle from PYPI, we removed the old make file generation to generate local eggs."
    }
  ]
}
